{
  "name": "Slalom.Demos.JobSiteWebScraper.ATT",
  "description": "Slalom Demos - Job Site Web Scraper - AT&T",
  "main": "Main.xaml",
  "dependencies": {
    "UiPath.Core.Activities": "18.1.6680.15559",
    "UiPath.Credentials.Activities": "1.1.6479.13204",
    "UiPath.Excel.Activities": "2.3.6682.26635"
  },
  "excludedData": [
    "Private:*",
    "*password*"
  ],
  "toolVersion": "18.1.4.0",
  "projectVersion": "1.0.6705.26778",
  "packOptions": {},
  "runtimeOptions": {}
}